Russell Brower|1|1|1|06/01/2017
Arctic Monkeys|3|2|2|12/02/2017
White Fence|13|5|4|26/02/2017
All Them Witches|4|3|3|27/12/2016
Dungen|11|8|7|16/07/2017
The Holydrug Couple|34|10|13|29/01/2017
Knuckle Puck|22|26|20|05/08/2017
Greenleaf|31|27|17|21/06/2017
Four Year Strong|21|17|24|11/10/2017
Carpenter Brut|19|27|25|29/04/2017
Fuzz|27|7|15|19/03/2017
Tomorrows Tulips|30|12|11|28/03/2017
Psychic Ills|8|9|16|07/04/2017
The Blank Tapes|26|11|12|17/05/2017
Psychedelic Crumpets|36|30|25|17/04/2017
Lowland Hum|44|34|33|04/08/2017
Blis|15|28|20|11/08/2017
Unknown Mortal Orchestra|16|14|24|16/04/2017
The Blue Angel Lounge|17|6|12|07/04/2017
alt-J|28|29|27|17/06/2017
Cage The Elephant|45|37|21|23/06/2017
The Jungle Giants|43|48|31|05/06/2017
Ball Park Music|47|43|37|21/12/2016
Dustin Lovelis|12|27|35|16/09/2017
Crepes|24|36|39|09/05/2017
Gorillaz|35|26|25|27/01/2017
WHY?|9|37|41|23/06/2017
Tame Impala|18|31|27|03/12/2016
Home|33|42|37|29/11/2017
Fog Lake|42|36|32|27/08/2017
Jesse Wood|10|38|31|11/03/2017
Vessels|39|15|41|06/12/2016
Russian Circles|14|43|38|27/11/2017
Pg Lost|37|39|37|22/01/2017
Vacations|7|27|25|04/04/2017
King Gizzard & The Lizard Wizard|50|32|35|27/01/2017
MGMT|25|4|43|23/12/2016
BOYO|46|45|41|20/12/2016
Ivory Waves|11|27|36|20/12/2017
Balue|6|13|46|12/08/2017
Mac DeMarco|5|42|41|03/02/2017
And So I Watch You from Afar|48|46|43|07/02/2017
Gromz|29|27|32|12/04/2017
Triathalon|2|16|46|17/05/2017
HOMESHAKE|23|25|48|27/01/2017
Joep Beving|40|43|47|16/01/2018
Mogwai|49|50|39|11/12/2016
King Krule|20|22|49|18/12/2017
Goth Babe|38|33|50|22/01/2017
Yellow Days|41|37|45|06/12/2017